Plastic Waste Checkpoint 1
…
plastics <- readr::read_csv('https://raw.githubusercontent.com/rfordatascience/tidytuesday/main/data/2021/2021-01-26/plastics.csv')

Rows: 13380 Columns: 14
── Column specification ────────────────────────────────────────────────────────
Delimiter: ","
chr  (2): country, parent_company
dbl (12): year, empty, hdpe, ldpe, o, pet, pp, ps, pvc, grand_total, num_eve...

ℹ Use `spec()` to retrieve the full column specification for this data.
ℹ Specify the column types or set `show_col_types = FALSE` to quiet this message.

plastics

# A tibble: 13,380 × 14
   country   year parent_company empty  hdpe  ldpe     o   pet    pp    ps   pvc
   <chr>    <dbl> <chr>          <dbl> <dbl> <dbl> <dbl> <dbl> <dbl> <dbl> <dbl>
 1 Argenti…  2019 Grand Total        0   215    55   607  1376   281   116    18
 2 Argenti…  2019 Unbranded          0   155    50   532   848   122   114    17
 3 Argenti…  2019 The Coca-Cola…     0     0     0     0   222    35     0     0
 4 Argenti…  2019 Secco              0     0     0     0    39     4     0     0
 5 Argenti…  2019 Doble Cola         0     0     0     0    38     0     0     0
 6 Argenti…  2019 Pritty             0     0     0     0    22     7     0     0
 7 Argenti…  2019 PepsiCo            0     0     0     0    21     6     0     0
 8 Argenti…  2019 Casoni             0     0     0     0    26     0     0     0
 9 Argenti…  2019 Villa Del Sur…     0     0     0     0    19     1     0     0
10 Argenti…  2019 Manaos             0     0     0     0    14     4     0     0
# ℹ 13,370 more rows
# ℹ 3 more variables: grand_total <dbl>, num_events <dbl>, volunteers <dbl>
…
