Project 1 Checkpoint 2
…
# Top 10 
democracy_data |>
  distinct(country_name) |>
  mutate(
    prop_suffrage = map_dbl(country_name, prop_suffrage_dem)
  ) |>
  slice_max(prop_suffrage, n = 10)

# A tibble: 127 × 2
   country_name        prop_suffrage
   <chr>                       <dbl>
 1 Albania                         1
 2 Anguilla                        1
 3 Antigua and Barbuda             1
 4 Argentina                       1
 5 Armenia                         1
 6 Aruba                           1
 7 Australia                       1
 8 Austria                         1
 9 Bahamas                         1
10 Bangladesh                      1
# ℹ 117 more rows
…
    prop_female <- female_leader_any |> 
        group_by(across(all_of(group))) |>  # Grouped by group = argument
        summarise(prop_female_leader = mean(female_leader, na.rm = TRUE))
                        # mean of TRUE/FALSE for the proportion 

    return(prop_female) # returns the group argument and the proportion
}

sum_female_leader(democracy_data, 
                     columns = c("is_female_monarch", "is_female_president"), 
                     group = "country_name")

# A tibble: 208 × 2
   country_name        prop_female_leader
   <chr>                            <dbl>
 1 Afghanistan                      0    
 2 Albania                          0    
 3 Algeria                          0    
 4 Angola                           0    
 5 Anguilla                         0.972
 6 Antigua and Barbuda              0    
 7 Argentina                        0.127
 8 Armenia                          0    
 9 Aruba                            0.887
10 Australia                        0    
# ℹ 198 more rows

sum_female_leader(democracy_data, 
                     columns = c("is_female_monarch", "is_female_president"), 
                     group = "regime_category")

# A tibble: 58 × 2
   regime_category                                        prop_female_leader
   <chr>                                                               <dbl>
 1 Administered by British military                                  0      
 2 British Dependent Territory                                       1      
 3 British Overseas Territory                                        1      
 4 British Protectorate                                              0      
 5 British Protectorate (Northern Rhodesia and Nyasaland)            0      
 6 British Protectorate (Nyasaland)                                  0      
 7 British colony                                                    0      
 8 British protected state                                           0.8    
 9 Civilian dictatorship                                             0.00634
10 Colony                                                            0.0752 
# ℹ 48 more rows

sum_female_leader(democracy_data, 
                     columns = c("is_female_monarch", "is_female_president"), 
                     group = "election_system")

# A tibble: 148 × 2
   election_system                                            prop_female_leader
   <chr>                                                                   <dbl>
 1 346 elected by municipal citizens, 181 chosen by 'social …             0     
 2 ?                                                                      0     
 3 All appointed                                                          0     
 4 Appointed                                                              0     
 5 Appointed by Basic Peoples Congresses                                  0     
 6 Appointed by clans                                                     0     
 7 Appointed by governor                                                  0     
 8 Bloc voting                                                            0.0273
 9 Block Vote                                                             0     
10 Borda count                                                            0     
# ℹ 138 more rows
…
